{
  "images" : [
    {
      "idiom" : "universal",
      "filename" : "NedbankAR.png"
    }
  ],
  "info" : {
    "version" : 1,
    "author" : "xcode"
  },
  "properties" : {
    "width" : 9.6070726915520623,
    "unit" : "inches"
  }
}